[
  {
    "imgTitle": "img/portfolio/01-thumbnail.jpg",
    "nameTitle": "Threads",
    "smallTitle": "Illustration"
  },
  {
    "imgTitle": "img/portfolio/02-thumbnail.jpg",
    "nameTitle": "Explore",
    "smallTitle": "Graphic Design"
  },
  {
    "imgTitle": "img/portfolio/03-thumbnail.jpg",
    "nameTitle": "Finish",
    "smallTitle": "Identity"
  },
  {
    "imgTitle": "img/portfolio/04-thumbnail.jpg",
    "nameTitle": "Lines",
    "smallTitle": "Branding"
  },
  {
    "imgTitle": "img/portfolio/05-thumbnail.jpg",
    "nameTitle": "Southwest",
    "smallTitle": "Website Design"
  },
  {
    "imgTitle": "img/portfolio/06-thumbnail.jpg",
    "nameTitle": "Window",
    "smallTitle": "Photography"
  }
]